{
	"info": {
		"_postman_id": "ec2ec4f1-84cd-4844-8067-8a7d4e87b3e9",
		"name": "Artsy",
		"schema": "https://schema.getpostman.com/json/collection/v2.1.0/collection.json"
	},
	"item": [
		{
			"name": "{{url}}/login",
			"event": [
				{
					"listen": "test",
					"script": {
						"id": "fbd01a91-a5fa-4c88-b828-de4602d287fe",
						"exec": [
							"var data = pm.response.json();",
							"pm.environment.set(\"token\", data.access_token);"
						],
						"type": "text/javascript"
					}
				}
			],
			"request": {
				"method": "POST",
				"header": [],
				"body": {
					"mode": "formdata",
					"formdata": [
						{
							"key": "email",
							"value": "aneesh.k@b-mates.com",
							"type": "text"
						},
						{
							"key": "password",
							"value": "Aneeshk123#",
							"type": "text"
						}
					]
				},
				"url": {
					"raw": "{{url}}/login",
					"host": [
						"{{url}}"
					],
					"path": [
						"login"
					]
				}
			},
			"response": []
		},
		{
			"name": "{{url}}/me",
			"event": [
				{
					"listen": "prerequest",
					"script": {
						"id": "1c6d921a-17d1-4686-b888-63cf4594469b",
						"exec": [
							""
						],
						"type": "text/javascript"
					}
				}
			],
			"protocolProfileBehavior": {
				"disableBodyPruning": true
			},
			"request": {
				"auth": {
					"type": "bearer",
					"bearer": [
						{
							"key": "token",
							"value": "{{token}}",
							"type": "string"
						}
					]
				},
				"method": "GET",
				"header": [],
				"body": {
					"mode": "formdata",
					"formdata": [
						{
							"key": "email",
							"value": "aneesh.k@b-mates.com",
							"type": "text"
						},
						{
							"key": "password",
							"value": "Aneeshk123#",
							"type": "text"
						}
					]
				},
				"url": {
					"raw": "{{url}}/me",
					"host": [
						"{{url}}"
					],
					"path": [
						"me"
					]
				}
			},
			"response": []
		},
		{
			"name": "{{url}}/logout",
			"request": {
				"auth": {
					"type": "bearer",
					"bearer": [
						{
							"key": "token",
							"value": "{{token}}",
							"type": "string"
						}
					]
				},
				"method": "GET",
				"header": [],
				"body": {
					"mode": "raw",
					"raw": ""
				},
				"url": {
					"raw": "{{url}}/logout",
					"host": [
						"{{url}}"
					],
					"path": [
						"logout"
					]
				}
			},
			"response": []
		}
	]
}